{
  "$id": "https://example.com/arrays.schema.json",
  "$schema": "https://json-schema.org/draft/2019-09/schema#",
  "title": "Bortezomib Regimen",
  "description": "",
  "type": "object",
  "x-props": {
    "grow": true
  },
  "x-display": "tabs",
  "he-java-script-validator": "amd-validator",
  "he-metadata": {
    "logo": "https://registration.mezzanineapps.com/img/doh-logo.jpg",
    "title": "Bortezomib utilization and monitoring",
    "subtitle": "Induction Pre-Transplant",
    "submit": "Save",
    "footer-links": [],
    "footer-message": "This is a copyrighted system | All rights reserved",
    "success": {
      "message": "Thank you for submitting.",
      "button": "Done"
    }
  },
  "he-identifiers": [
    "/regimen/hprsFileNumber"
  ],
  "properties": {
    "regimen": {
      "title": "Induction regimen details",
      "he-weight": 0,
      "x-class": "tab-heading",
      "description": "Induction regimen details:  bortezomib, corticosteroid, and either thalidomide/cyclophosphamide (VTD/VTd or VCD/VCd)",
      "type": "object",
      "required": [
        "hprsFileNumber",
        "date",
        "cycles"
      ],
      "properties": {
        "location": {
          "title": "Province",
          "type": "object",
          "he-weight": 1,
          "oneOf": [
            {
              "title": "Eastern Cape",
              "he-weight": 2,
              "required": [
                "institution"
              ],
              "properties": {
                "province": {
                  "type": "string",
                  "const": "Eastern Cape"
                },
                "institution": {
                  "title": "Institution",
                  "type": "string",
                  "enum": [
                    "Frere",
                    "Livingstone",
                    "Nelson Mandela Bay"
                  ]
                }
              }
            },
            {
              "title": "Free State",
              "he-weight": 3,
              "required": [
                "institution"
              ],
              "properties": {
                "province": {
                  "type": "string",
                  "const": "Free State"
                },
                "institution": {
                  "title": "Institution",
                  "type": "string",
                  "enum": [
                    "Universitas"
                  ]
                }
              }
            },
            {
              "title": "Gauteng",
              "he-weight": 4,
              "required": [
                "institution"
              ],
              "properties": {
                "province": {
                  "type": "string",
                  "const": "Gauteng"
                },
                "institution": {
                  "title": "Institution",
                  "type": "string",
                  "enum": [
                    "Charlotte Maxeke",
                    "Steve Biko Academic Hospital"
                  ]
                }
              }
            },
            {
              "title": "Kwa-Zulu Natal",
              "he-weight": 5,
              "required": [
                "institution"
              ],
              "properties": {
                "province": {
                  "type": "string",
                  "const": "Kwa-Zulu Natal"
                },
                "institution": {
                  "title": "Institution",
                  "type": "string",
                  "enum": [
                    "King Edward V Hospital",
                    "Inkosi Albert Luthuli Central Hospital"
                  ]
                }
              }
            },
            {
              "title": "Limpopo",
              "he-weight": 6,
              "required": [
                "institution"
              ],
              "properties": {
                "province": {
                  "type": "string",
                  "const": "Limpopo"
                },
                "institution": {
                  "title": "Institution",
                  "type": "string",
                  "enum": [
                    "Polokwane"
                  ]
                }
              }
            },
            {
              "title": "Western Cape",
              "he-weight": 7,
              "required": [
                "institution"
              ],
              "properties": {
                "province": {
                  "type": "string",
                  "const": "Western Cape"
                },
                "institution": {
                  "title": "Institution",
                  "type": "string",
                  "enum": [
                    "Tygerberg",
                    "Groote Schuur"
                  ]
                }
              }
            }
          ]
        },
        "hprsFileNumber": {
          "title": "HPRS/File Number",
          "he-weight": 8,
          "type": "string"
        },
        "date": {
          "type": "string",
          "he-weight": 9,
          "title": "Date",
          "format": "date"
        },
        "cycles": {
          "title": "Cycles",
          "he-weight": 11,
          "type": "array",
          "items": {
            "type": "object",
            "required": [
              "cycle",
              "day",
              "date",
              "bortezomibDose",
              "otherRegimen"
            ],
            "properties": {
              "cycle": {
                "title": "Cycle",
                "he-weight": 12,
                "enum": [
                  "Cycle 1",
                  "Cycle 2",
                  "Cycle 3",
                  "Cycle 4",
                  "Cycle 5",
                  "Cycle 6"
                ]
              },
              "day": {
                "title": "Day",
                "he-weight": 13,
                "enum": [
                  "Day 1",
                  "Day 8",
                  "Day 15",
                  "Day 22"
                ]
              },
              "date": {
                "title": "Date",
                "he-weight": 14,
                "type": "string",
                "format": "date"
              },
              "bortezomibDose": {
                "title": "Dose of Bortezomib (mg)",
                "he-weight": 15,
                "type": "number"
              },
              "dexamethasone": {
                "type": "object",
                "he-weight": 16,
                "allOf": [
                  {
                    "properties": {
                      "administered": {
                        "title": "Corticosteriod adminstered",
                        "he-weight": 17,
                        "type": "boolean"
                      }
                    },
                    "if": {
                      "type": "object",
                      "required": [
                        "administered"
                      ],
                      "properties": {
                        "administered": {
                          "type": "boolean",
                          "const": true
                        }
                      }
                    },
                    "then": {
                      "type": "object",
                      "he-weight": 18,
                      "required": [
                        "corticosteroidAndDose"
                      ],
                      "properties": {
                        "corticosteroidDose": {
                          "title": "List corticosteriod administered and dose(Mg)",
                          "he-weight": 19,
                          "type": "number"
                        }
                      }
                    },
                    "else": {
                      "type": "object",
                      "he-weight": 20,
                      "required": [
                        "reasonNotAdministerred"
                      ],
                      "properties": {
                        "reasonNotAdministerred": {
                          "title": "Reason corticosteriod not administered",
                          "he-weight": 21,
                          "type": "string"
                        }
                      }
                    }
                  }
                ]
              },
              "otherRegimen": {
                "title": "Other regimen drugs administered",
                "he-weight": 22,
                "type": "object",
                "oneOf": [
                  {
                    "title": "Not administered",
                    "he-weight": 23,
                    "required": [
                      "reason"
                    ],
                    "properties": {
                      "reason": {
                        "title": "Reason for other regimen drugs not being administered",
                        "he-weight": 24,
                        "type": "string"
                      },
                      "regimen": {
                        "type": "string",
                        "he-weight": 25,
                        "const": "Not adminstered"
                      }
                    }
                  },
                  {
                    "title": "Thalidomide",
                    "he-weight": 26,
                    "required": [
                      "dose"
                    ],
                    "properties": {
                      "dose": {
                        "title": "Thalidomide dose (mg)",
                        "he-weight": 27,
                        "type": "number"
                      },
                      "regimen": {
                        "type": "string",
                        "he-weight": 28,
                        "const": "Thalidomide"
                      }
                    }
                  },
                  {
                    "title": "Cyclophosphamide",
                    "he-weight": 29,
                    "required": [
                      "dose"
                    ],
                    "properties": {
                      "dose": {
                        "title": "Cyclophosphamide dose (mg)",
                        "he-weight": 30,
                        "type": "number"
                      },
                      "regimen": {
                        "type": "string",
                        "he-weight": 31,
                        "const": "Cyclophosphamide"
                      }
                    }
                  }
                ]
              }
            }
          }
        }
      }
    },
    "followUp": {
      "title": "Follow Up",
      "he-weight": 1,
      "x-class": "tab-heading",
      "description": "Follow Up Data",
      "type": "object",
      "required": [
        "inductionTherapyResponse"
      ],
      "properties": {
        "inductionTherapyResponse": {
          "title": "Response to induction therapy: outcome pre-transplant",
          "he-weight": 0,
          "x-class": "section-heading",
          "type": "array",
          "x-display": "checkbox",
          "items": {
            "type": "string",
            "enum": [
              "Stringent complete response (sCR)",
              "Complete response (CR)",
              "Very good partial response (VGPR)",
              "Partial response (PR)",
              "Stable disease (SD)",
              "Progressive disease (PD)"
            ]
          }
        },
        "adverseEvents": {
          "title": "Notable adverse events from bortezomib regimen",
          "type": "object",
          "he-weight": 1,
          "x-class": "section-heading",
          "allOf": [
            {
              "type": "object",
              "properties": {
                "neuropathy": {
                  "title": "Neuropathy",
                  "he-weight": 0,
                  "type": "boolean",
                  "x-display": "checkbox"
                }
              },
              "if": {
                "type": "object",
                "required": [
                  "neuropathy"
                ],
                "properties": {
                  "neuropathy": {
                    "const": true
                  }
                }
              },
              "then": {
                "type": "object",
                "required": [
                  "neuropathyGrade"
                ],
                "properties": {
                  "neuropathyGrade": {
                    "title": "If Neuropathy, indicate grade",
                    "he-weight": 1,
                    "type": "string",
                    "enum": [
                      "Grade 1",
                      "Grade 2",
                      "Grade 3",
                      "Grade 4"
                    ]
                  }
                }
              }
            },
            {
              "type": "object",
              "properties": {
                "neutropenia": {
                  "title": "Neutropenia",
                  "he-weight": 2,
                  "type": "boolean",
                  "x-display": "checkbox"
                }
              },
              "if": {
                "type": "object",
                "required": [
                  "neutropenia"
                ],
                "properties": {
                  "neutropenia": {
                    "const": true
                  }
                }
              },
              "then": {
                "type": "object",
                "required": [
                  "neutropeniaGrade"
                ],
                "properties": {
                  "neutropeniaGrade": {
                    "title": "Neutropenia grade",
                    "he-weight": 3,
                    "type": "string",
                    "enum": [
                      "Grade 0",
                      "Grade 1",
                      "Grade 2",
                      "Grade 3",
                      "Grade 4"
                    ]
                  }
                }
              }
            },
            {
              "type": "object",
              "properties": {
                "thrombocytopaenia": {
                  "title": "Thrombocytopaenia",
                  "he-weight": 4,
                  "type": "boolean",
                  "x-display": "checkbox"
                }
              },
              "if": {
                "type": "object",
                "required": [
                  "thrombocytopaenia"
                ],
                "properties": {
                  "thrombocytopaenia": {
                    "const": true
                  }
                }
              },
              "then": {
                "type": "object",
                "required": [
                  "thrombocytopaeniaGrade"
                ],
                "properties": {
                  "thrombocytopaeniaGrade": {
                    "title": "Thrombocytopaenia grade",
                    "he-weight": 5,
                    "type": "string",
                    "enum": [
                      "Grade 1",
                      "Grade 2",
                      "Grade 3",
                      "Grade 4"
                    ]
                  }
                }
              }
            },
            {
              "type": "object",
              "properties": {
                "other": {
                  "title": "Other",
                  "he-weight": 6,
                  "type": "boolean",
                  "x-display": "checkbox"
                }
              },
              "if": {
                "type": "object",
                "required": [
                  "other"
                ],
                "properties": {
                  "present": {
                    "const": true
                  }
                }
              },
              "then": {
                "type": "object",
                "required": [
                  "otherSpecification"
                ],
                "properties": {
                  "otherSpecification": {
                    "title": "Specify",
                    "he-weight": 7,
                    "type": "string"
                  }
                }
              }
            }
          ]
        }
      }
    }
  }
}