{
  "regimen": {
    "location": {
      "province": "Gauteng",
      "institution": "Steve Biko Academic Hospital"
    },
    "cycles": [
      {
        "dexamethasone": {
          "administered": true,
          "dexamethasoneDose": 21
        },
        "otherRegimen": {
          "regimen": "Thalidomide",
          "dose": 789
        },
        "cycle": "Cycle 1",
        "day": "Day 8",
        "date": "2021-10-14",
        "bortezomibDose": 3345
      },
      {
        "dexamethasone": {
          "administered": true,
          "dexamethasoneDose": 6676768687
        },
        "otherRegimen": {
          "regimen": "Cyclophosphamide",
          "dose": 876
        },
        "cycle": "Cycle 5",
        "day": "Day 8",
        "date": "2021-10-05",
        "bortezomibDose": 789
      }
    ],
    "hprsFileNumber": "1",
    "date": "2021-10-14"
  },
  "followUp": {
    "inductionTherapyResponse": [
      "Stringent complete response (sCR)",
      "Complete response (CR)",
      "Very good partial response (VGPR)"
    ],
    "adverseEvents": {
      "neuropathy": true,
      "neuropathyGrade": "Grade 2",
      "neutropenia": true,
      "neutropeniaGrade": "Grade 1",
      "thrombocytopaenia": true,
      "thrombocytopaeniaGrade": "Grade 2"
    }
  }
}